[0609/221217.151:ERROR:process_reader_win.cc(123)] NtOpenThread: {Access Denied} A process has requested access to an object, but has not been granted those access rights. (0xc0000022)
[0609/221217.152:ERROR:exception_snapshot_win.cc(98)] thread ID 15772 not found in process
[0609/231643.724:ERROR:process_reader_win.cc(123)] NtOpenThread: {Access Denied} A process has requested access to an object, but has not been granted those access rights. (0xc0000022)
[0609/231643.725:ERROR:exception_snapshot_win.cc(98)] thread ID 11668 not found in process
[0610/000120.893:ERROR:process_reader_win.cc(123)] NtOpenThread: {Access Denied} A process has requested access to an object, but has not been granted those access rights. (0xc0000022)
[0610/000120.894:ERROR:exception_snapshot_win.cc(98)] thread ID 11464 not found in process
[0610/031400.627:ERROR:process_reader_win.cc(123)] NtOpenThread: {Access Denied} A process has requested access to an object, but has not been granted those access rights. (0xc0000022)
[0610/031400.627:ERROR:exception_snapshot_win.cc(98)] thread ID 5468 not found in process
[0612/093904.539:ERROR:process_reader_win.cc(123)] NtOpenThread: {Access Denied} A process has requested access to an object, but has not been granted those access rights. (0xc0000022)
[0612/093904.548:ERROR:exception_snapshot_win.cc(98)] thread ID 4704 not found in process
[0612/094333.262:ERROR:process_reader_win.cc(123)] NtOpenThread: {Access Denied} A process has requested access to an object, but has not been granted those access rights. (0xc0000022)
[0612/094333.262:ERROR:exception_snapshot_win.cc(98)] thread ID 15536 not found in process
[0612/100438.345:ERROR:process_reader_win.cc(123)] NtOpenThread: {Access Denied} A process has requested access to an object, but has not been granted those access rights. (0xc0000022)
[0612/100438.346:ERROR:exception_snapshot_win.cc(98)] thread ID 12036 not found in process
[0612/111429.917:ERROR:process_reader_win.cc(123)] NtOpenThread: {Access Denied} A process has requested access to an object, but has not been granted those access rights. (0xc0000022)
[0612/111429.917:ERROR:exception_snapshot_win.cc(98)] thread ID 15312 not found in process
[0612/115702.964:ERROR:process_reader_win.cc(123)] NtOpenThread: {Access Denied} A process has requested access to an object, but has not been granted those access rights. (0xc0000022)
[0612/115702.972:ERROR:exception_snapshot_win.cc(98)] thread ID 11268 not found in process
[0612/120001.083:ERROR:process_reader_win.cc(123)] NtOpenThread: {Access Denied} A process has requested access to an object, but has not been granted those access rights. (0xc0000022)
[0612/120001.084:ERROR:exception_snapshot_win.cc(98)] thread ID 5776 not found in process
[0612/122336.419:ERROR:process_reader_win.cc(123)] NtOpenThread: {Access Denied} A process has requested access to an object, but has not been granted those access rights. (0xc0000022)
[0612/122336.420:ERROR:exception_snapshot_win.cc(98)] thread ID 12152 not found in process
[0612/123343.932:ERROR:process_reader_win.cc(123)] NtOpenThread: {Access Denied} A process has requested access to an object, but has not been granted those access rights. (0xc0000022)
[0612/123343.933:ERROR:exception_snapshot_win.cc(98)] thread ID 9160 not found in process
[0612/133428.119:ERROR:process_reader_win.cc(123)] NtOpenThread: {Access Denied} A process has requested access to an object, but has not been granted those access rights. (0xc0000022)
[0612/133428.131:ERROR:exception_snapshot_win.cc(98)] thread ID 10060 not found in process
